<?xml version="1.0" encoding="UTF-8"?>
<!DOCTYPE svg PUBLIC "-//W3C//DTD SVG 1.1//EN" "http://www.w3.org/Graphics/SVG/1.1/DTD/svg11.dtd">
<!-- Creator: CorelDRAW 2019 (64 Bit) -->
<svg xmlns="http://www.w3.org/2000/svg" xml:space="preserve" width="140px" height="41px" version="1.1" style="shape-rendering:geometricPrecision; text-rendering:geometricPrecision; image-rendering:optimizeQuality; fill-rule:evenodd; clip-rule:evenodd"
viewBox="0 0 140 41"
 xmlns:xlink="http://www.w3.org/1999/xlink">
 <defs>
  <style type="text/css">
   <![CDATA[
    .fil1 {fill:#FEFEFE;fill-rule:nonzero}
    .fil0 {fill:#FEFEFE;fill-rule:nonzero}
   ]]>
  </style>
 </defs>
 <g id="Camada_x0020_1">
  <metadata id="CorelCorpID_0Corel-Layer"/>
  <path class="fil0" d="M134.17 1.38c2.38,0 4.32,1.88 4.32,4.2l0 29.97c0,2.31 -1.94,4.19 -4.32,4.19l-128.34 0c-2.38,0 -4.32,-1.88 -4.32,-4.19l0 -29.97c0,-2.32 1.94,-4.2 4.32,-4.2l128.34 0zm0.65 -1.56l-129.63 0c-2.86,0 -5.19,2.33 -5.19,5.19l0 31.11c0,2.85 2.33,5.18 5.19,5.18l129.63 0c2.85,0 5.18,-2.33 5.18,-5.18l0 -31.11c0,-2.86 -2.33,-5.19 -5.18,-5.19z"/>
  <g id="_2554030179392">
   <path class="fil1" d="M64.44 27.53c0,-1.04 -0.24,-1.9 -0.71,-2.58 -0.51,-0.7 -1.2,-1.06 -2.07,-1.06 -0.59,0 -1.12,0.2 -1.6,0.59 -0.48,0.39 -0.79,0.9 -0.93,1.53 -0.08,0.29 -0.11,0.54 -0.11,0.72l0 1.79c0,0.78 0.23,1.44 0.71,1.97 0.48,0.54 1.1,0.81 1.86,0.81 0.9,0 1.6,-0.35 2.1,-1.04 0.5,-0.69 0.75,-1.6 0.75,-2.73zm2.42 -0.09c0,1.82 -0.49,3.26 -1.48,4.32 -0.88,0.94 -1.97,1.41 -3.28,1.41 -1.41,0 -2.42,-0.51 -3.04,-1.52l-0.05 0 0 5.64 -2.38 0 0 -11.55c0,-1.14 -0.03,-2.32 -0.08,-3.52l2.09 0 0.13 1.7 0.05 0c0.79,-1.28 1.99,-1.92 3.61,-1.92 1.26,0 2.32,0.5 3.16,1.5 0.85,1 1.27,2.31 1.27,3.94z"/>
   <path class="fil1" d="M76.76 27.53c0,-1.04 -0.24,-1.9 -0.71,-2.58 -0.51,-0.7 -1.2,-1.06 -2.07,-1.06 -0.59,0 -1.12,0.2 -1.6,0.59 -0.48,0.39 -0.79,0.9 -0.93,1.53 -0.08,0.29 -0.12,0.54 -0.12,0.72l0 1.79c0,0.78 0.24,1.44 0.72,1.97 0.48,0.54 1.1,0.81 1.86,0.81 0.9,0 1.6,-0.35 2.1,-1.04 0.5,-0.69 0.75,-1.6 0.75,-2.73zm2.42 -0.09c0,1.82 -0.49,3.26 -1.48,4.32 -0.88,0.94 -1.97,1.41 -3.28,1.41 -1.41,0 -2.42,-0.51 -3.04,-1.52l-0.05 0 0 5.64 -2.37 0 0 -11.55c0,-1.14 -0.03,-2.32 -0.09,-3.52l2.09 0 0.13 1.7 0.05 0c0.79,-1.28 1.99,-1.92 3.61,-1.92 1.26,0 2.32,0.5 3.17,1.5 0.84,1 1.26,2.31 1.26,3.94z"/>
   <g>
    <path class="fil1" d="M28.31 19.85c-0.03,-3.6 2.95,-5.35 3.09,-5.43 -1.69,-2.46 -4.31,-2.8 -5.22,-2.82 -2.2,-0.23 -4.33,1.31 -5.45,1.31 -1.14,0 -2.86,-1.29 -4.72,-1.25 -2.39,0.03 -4.62,1.42 -5.85,3.56 -2.53,4.38 -0.64,10.82 1.78,14.36 1.22,1.73 2.63,3.67 4.49,3.6 1.81,-0.08 2.49,-1.16 4.68,-1.16 2.17,0 2.8,1.16 4.69,1.12 1.95,-0.04 3.18,-1.75 4.35,-3.5 1.4,-1.98 1.96,-3.94 1.98,-4.04 -0.04,-0.01 -3.78,-1.44 -3.82,-5.75z"/>
    <path class="fil1" d="M24.74 9.27c0.98,-1.22 1.64,-2.88 1.46,-4.57 -1.41,0.07 -3.18,0.98 -4.2,2.17 -0.89,1.06 -1.7,2.78 -1.49,4.4 1.59,0.12 3.21,-0.8 4.23,-2z"/>
    <path class="fil1" d="M50.22 26.74l-1.25 -3.88c-0.14,-0.4 -0.39,-1.33 -0.75,-2.8l-0.05 0c-0.14,0.63 -0.38,1.56 -0.7,2.8l-1.24 3.88 3.99 0zm4.34 6.19l-2.53 0 -1.39 -4.36 -4.83 0 -1.32 4.36 -2.47 0 4.79 -14.86 2.95 0 4.8 14.86z"/>
    <path class="fil1" d="M92.95 28.76c0,1.27 -0.43,2.3 -1.31,3.09 -0.97,0.87 -2.32,1.3 -4.05,1.3 -1.6,0 -2.88,-0.31 -3.85,-0.93l0.55 -1.98c1.05,0.63 2.19,0.95 3.44,0.95 0.9,0 1.6,-0.2 2.1,-0.61 0.5,-0.4 0.75,-0.94 0.75,-1.62 0,-0.6 -0.21,-1.11 -0.62,-1.52 -0.41,-0.41 -1.1,-0.8 -2.05,-1.15 -2.6,-0.97 -3.9,-2.39 -3.9,-4.26 0,-1.22 0.45,-2.22 1.37,-3 0.9,-0.78 2.12,-1.17 3.63,-1.17 1.35,0 2.48,0.23 3.37,0.7l-0.59 1.94c-0.84,-0.45 -1.79,-0.68 -2.84,-0.68 -0.84,0 -1.5,0.21 -1.97,0.62 -0.39,0.36 -0.59,0.81 -0.59,1.34 0,0.59 0.23,1.07 0.68,1.46 0.4,0.35 1.12,0.73 2.16,1.14 1.28,0.52 2.22,1.12 2.82,1.81 0.6,0.69 0.9,1.55 0.9,2.57z"/>
    <path class="fil1" d="M100.82 24l-2.62 0 0 5.21c0,1.32 0.46,1.98 1.39,1.98 0.42,0 0.78,-0.04 1.06,-0.11l0.06 1.8c-0.47,0.18 -1.08,0.27 -1.85,0.27 -0.94,0 -1.67,-0.29 -2.2,-0.86 -0.53,-0.57 -0.8,-1.54 -0.8,-2.89l0 -5.4 -1.56 0 0 -1.78 1.56 0 0 -1.97 2.34 -0.7 0 2.67 2.62 0 0 1.78z"/>
    <path class="fil1" d="M110.19 27.56c0,-0.98 -0.21,-1.83 -0.64,-2.54 -0.5,-0.85 -1.21,-1.28 -2.13,-1.28 -0.96,0 -1.69,0.43 -2.19,1.28 -0.42,0.71 -0.64,1.57 -0.64,2.59 0,0.98 0.22,1.83 0.64,2.54 0.52,0.85 1.24,1.28 2.16,1.28 0.91,0 1.63,-0.44 2.14,-1.3 0.44,-0.72 0.66,-1.58 0.66,-2.57zm2.47 -0.07c0,1.64 -0.47,2.99 -1.41,4.05 -0.99,1.09 -2.3,1.63 -3.93,1.63 -1.57,0 -2.82,-0.52 -3.75,-1.56 -0.94,-1.04 -1.4,-2.36 -1.4,-3.95 0,-1.66 0.48,-3.02 1.44,-4.07 0.96,-1.06 2.26,-1.59 3.89,-1.59 1.57,0 2.84,0.52 3.79,1.56 0.91,1.02 1.37,2.32 1.37,3.93z"/>
    <path class="fil1" d="M120.39 24.31c-0.23,-0.04 -0.48,-0.06 -0.75,-0.06 -0.83,0 -1.48,0.31 -1.93,0.94 -0.4,0.56 -0.6,1.27 -0.6,2.12l0 5.62 -2.38 0 0.02 -7.34c0,-1.23 -0.03,-2.36 -0.09,-3.37l2.08 0 0.08 2.05 0.07 0c0.25,-0.71 0.65,-1.27 1.19,-1.7 0.53,-0.38 1.1,-0.57 1.72,-0.57 0.22,0 0.42,0.01 0.59,0.04l0 2.27z"/>
    <path class="fil1" d="M128.77 26.45c0.01,-0.71 -0.14,-1.31 -0.46,-1.83 -0.42,-0.66 -1.05,-0.99 -1.9,-0.99 -0.78,0 -1.41,0.32 -1.89,0.97 -0.4,0.51 -0.64,1.13 -0.71,1.85l4.96 0 0 0zm2.27 0.62c0,0.42 -0.03,0.78 -0.09,1.08l-7.14 0c0.03,1.06 0.37,1.86 1.04,2.42 0.6,0.5 1.38,0.75 2.33,0.75 1.06,0 2.02,-0.17 2.89,-0.51l0.37 1.66c-1.01,0.44 -2.21,0.66 -3.59,0.66 -1.66,0 -2.96,-0.49 -3.91,-1.47 -0.95,-0.97 -1.42,-2.29 -1.42,-3.93 0,-1.62 0.44,-2.96 1.32,-4.03 0.93,-1.15 2.18,-1.72 3.75,-1.72 1.54,0 2.71,0.57 3.5,1.72 0.63,0.91 0.95,2.03 0.95,3.37z"/>
    <path class="fil1" d="M48.2 8.97c0,-0.85 -0.22,-1.51 -0.67,-1.96 -0.46,-0.46 -1.11,-0.68 -1.98,-0.68 -0.37,0 -0.68,0.02 -0.94,0.07l0 5.46c0.14,0.02 0.4,0.03 0.79,0.03 0.89,0 1.58,-0.25 2.07,-0.74 0.49,-0.5 0.73,-1.23 0.73,-2.18zm1.24 -0.03c0,1.31 -0.4,2.3 -1.19,2.96 -0.72,0.62 -1.76,0.92 -3.1,0.92 -0.67,0 -1.24,-0.03 -1.71,-0.08l0 -7.18c0.62,-0.1 1.29,-0.15 2.01,-0.15 1.28,0 2.24,0.27 2.89,0.83 0.73,0.63 1.1,1.53 1.1,2.7z"/>
    <path class="fil1" d="M54.76 10.12c0,-0.48 -0.1,-0.9 -0.31,-1.25 -0.25,-0.42 -0.6,-0.63 -1.05,-0.63 -0.47,0 -0.83,0.21 -1.07,0.63 -0.21,0.35 -0.32,0.77 -0.32,1.27 0,0.49 0.11,0.9 0.32,1.25 0.25,0.42 0.6,0.63 1.06,0.63 0.44,0 0.79,-0.21 1.05,-0.64 0.21,-0.35 0.32,-0.77 0.32,-1.26zm1.22 -0.04c0,0.81 -0.24,1.48 -0.7,2 -0.48,0.53 -1.12,0.8 -1.93,0.8 -0.77,0 -1.38,-0.26 -1.84,-0.77 -0.46,-0.51 -0.69,-1.16 -0.69,-1.94 0,-0.81 0.24,-1.48 0.71,-2 0.47,-0.52 1.11,-0.78 1.91,-0.78 0.77,0 1.39,0.26 1.86,0.77 0.45,0.5 0.68,1.14 0.68,1.92z"/>
    <path class="fil1" d="M64.74 7.5l-1.64 5.26 -1.07 0 -0.69 -2.29c-0.17,-0.57 -0.31,-1.13 -0.42,-1.7l-0.02 0c-0.1,0.58 -0.24,1.15 -0.42,1.7l-0.73 2.29 -1.08 0 -1.55 -5.26 1.2 0 0.6 2.5c0.14,0.59 0.26,1.15 0.35,1.69l0.03 0c0.08,-0.44 0.23,-1 0.43,-1.68l0.75 -2.51 0.95 0 0.72 2.46c0.17,0.6 0.31,1.17 0.42,1.73l0.03 0c0.08,-0.54 0.2,-1.12 0.36,-1.73l0.64 -2.46 1.14 0 0 0z"/>
    <path class="fil1" d="M70.81 12.76l-1.17 0 0 -3.02c0,-0.92 -0.35,-1.39 -1.06,-1.39 -0.35,0 -0.63,0.13 -0.85,0.38 -0.21,0.26 -0.32,0.56 -0.32,0.91l0 3.12 -1.17 0 0 -3.76c0,-0.46 -0.02,-0.96 -0.04,-1.51l1.02 0 0.06 0.83 0.03 0c0.14,-0.26 0.34,-0.47 0.61,-0.64 0.31,-0.19 0.67,-0.29 1.06,-0.29 0.49,0 0.9,0.15 1.22,0.47 0.41,0.39 0.61,0.97 0.61,1.75l0 3.15z"/>
    <polygon class="fil1" points="72.87,12.76 74.03,12.76 74.03,5.08 72.87,5.08 "/>
    <path class="fil1" d="M79.71 10.12c0,-0.48 -0.11,-0.9 -0.32,-1.25 -0.24,-0.42 -0.59,-0.63 -1.04,-0.63 -0.48,0 -0.83,0.21 -1.08,0.63 -0.21,0.35 -0.31,0.77 -0.31,1.27 0,0.49 0.1,0.9 0.31,1.25 0.26,0.42 0.61,0.63 1.06,0.63 0.45,0 0.8,-0.21 1.05,-0.64 0.22,-0.35 0.33,-0.77 0.33,-1.26zm1.21 -0.04c0,0.81 -0.23,1.48 -0.69,2 -0.49,0.53 -1.13,0.8 -1.93,0.8 -0.77,0 -1.39,-0.26 -1.85,-0.77 -0.45,-0.51 -0.68,-1.16 -0.68,-1.94 0,-0.81 0.23,-1.48 0.71,-2 0.47,-0.52 1.11,-0.78 1.91,-0.78 0.77,0 1.39,0.26 1.86,0.77 0.45,0.5 0.67,1.14 0.67,1.92z"/>
    <path class="fil1" d="M85.37 10.95l0 -0.81c-1.29,-0.02 -1.94,0.33 -1.94,1.06 0,0.27 0.08,0.48 0.23,0.62 0.15,0.13 0.34,0.2 0.57,0.2 0.26,0 0.5,-0.08 0.71,-0.24 0.22,-0.16 0.36,-0.37 0.41,-0.62l0.02 -0.21zm1.21 1.81l-1.05 0 -0.08 -0.61 -0.04 0c-0.36,0.49 -0.87,0.73 -1.53,0.73 -0.5,0 -0.9,-0.16 -1.21,-0.48 -0.27,-0.29 -0.41,-0.65 -0.41,-1.07 0,-0.64 0.27,-1.13 0.81,-1.47 0.54,-0.34 1.29,-0.51 2.27,-0.5l0 -0.1c0,-0.69 -0.36,-1.04 -1.09,-1.04 -0.52,0 -0.98,0.13 -1.37,0.39l-0.24 -0.77c0.49,-0.3 1.09,-0.45 1.8,-0.45 1.38,0 2.07,0.73 2.07,2.18l0 1.93c0,0.53 0.02,0.95 0.07,1.26z"/>
    <path class="fil1" d="M92.02 10.54l0 -0.88c0,-0.15 -0.01,-0.27 -0.03,-0.37 -0.07,-0.28 -0.21,-0.51 -0.43,-0.71 -0.21,-0.19 -0.48,-0.28 -0.78,-0.28 -0.44,0 -0.78,0.17 -1.03,0.52 -0.25,0.35 -0.37,0.79 -0.37,1.33 0,0.52 0.12,0.94 0.36,1.27 0.25,0.34 0.59,0.52 1.02,0.52 0.38,0 0.69,-0.15 0.92,-0.44 0.23,-0.26 0.34,-0.59 0.34,-0.96zm1.21 2.22l-1.04 0 -0.05 -0.85 -0.03 0c-0.34,0.65 -0.9,0.97 -1.69,0.97 -0.64,0 -1.17,-0.25 -1.59,-0.75 -0.41,-0.5 -0.62,-1.14 -0.62,-1.94 0,-0.85 0.22,-1.54 0.68,-2.07 0.44,-0.49 0.98,-0.73 1.62,-0.73 0.71,0 1.2,0.24 1.49,0.71l0.02 0 0 -3.02 1.17 0 0 6.26c0,0.51 0.01,0.98 0.04,1.42z"/>
    <path class="fil1" d="M102.02 10.12c0,-0.48 -0.1,-0.9 -0.31,-1.25 -0.25,-0.42 -0.6,-0.63 -1.05,-0.63 -0.47,0 -0.83,0.21 -1.07,0.63 -0.21,0.35 -0.32,0.77 -0.32,1.27 0,0.49 0.11,0.9 0.32,1.25 0.25,0.42 0.6,0.63 1.06,0.63 0.44,0 0.8,-0.21 1.05,-0.64 0.21,-0.35 0.32,-0.77 0.32,-1.26zm1.22 -0.04c0,0.81 -0.24,1.48 -0.7,2 -0.48,0.53 -1.12,0.8 -1.93,0.8 -0.77,0 -1.38,-0.26 -1.84,-0.77 -0.46,-0.51 -0.69,-1.16 -0.69,-1.94 0,-0.81 0.24,-1.48 0.71,-2 0.47,-0.52 1.11,-0.78 1.91,-0.78 0.77,0 1.4,0.26 1.86,0.77 0.45,0.5 0.68,1.14 0.68,1.92z"/>
    <path class="fil1" d="M109.52 12.76l-1.16 0 0 -3.02c0,-0.92 -0.36,-1.39 -1.07,-1.39 -0.34,0 -0.62,0.13 -0.84,0.38 -0.22,0.26 -0.32,0.56 -0.32,0.91l0 3.12 -1.17 0 0 -3.76c0,-0.46 -0.02,-0.96 -0.05,-1.51l1.03 0 0.06 0.83 0.03 0c0.13,-0.26 0.34,-0.47 0.6,-0.64 0.32,-0.19 0.68,-0.29 1.07,-0.29 0.49,0 0.89,0.15 1.22,0.47 0.4,0.39 0.6,0.97 0.6,1.75l0 3.15z"/>
    <path class="fil1" d="M117.4 8.37l-1.29 0 0 2.56c0,0.65 0.23,0.97 0.68,0.97 0.21,0 0.38,-0.01 0.52,-0.05l0.03 0.89c-0.23,0.08 -0.53,0.13 -0.91,0.13 -0.46,0 -0.82,-0.14 -1.08,-0.43 -0.26,-0.28 -0.39,-0.75 -0.39,-1.41l0 -2.66 -0.77 0 0 -0.87 0.77 0 0 -0.97 1.15 -0.34 0 1.31 1.29 0 0 0.87 0 0z"/>
    <path class="fil1" d="M123.59 12.76l-1.17 0 0 -2.99c0,-0.95 -0.35,-1.42 -1.06,-1.42 -0.54,0 -0.91,0.27 -1.12,0.82 -0.03,0.12 -0.05,0.26 -0.05,0.42l0 3.17 -1.17 0 0 -7.68 1.17 0 0 3.17 0.02 0c0.37,-0.57 0.9,-0.86 1.58,-0.86 0.49,0 0.89,0.16 1.21,0.48 0.39,0.39 0.59,0.98 0.59,1.76l0 3.13z"/>
    <path class="fil1" d="M128.86 9.58c0.01,-0.35 -0.07,-0.65 -0.22,-0.9 -0.21,-0.33 -0.52,-0.49 -0.94,-0.49 -0.38,0 -0.69,0.16 -0.93,0.48 -0.19,0.25 -0.31,0.55 -0.34,0.91l2.43 0zm1.12 0.3c0,0.21 -0.02,0.39 -0.04,0.53l-3.51 0c0.01,0.52 0.18,0.92 0.5,1.19 0.3,0.25 0.68,0.37 1.15,0.37 0.52,0 1,-0.08 1.42,-0.25l0.19 0.81c-0.5,0.22 -1.09,0.33 -1.77,0.33 -0.82,0 -1.46,-0.24 -1.92,-0.72 -0.47,-0.48 -0.7,-1.13 -0.7,-1.94 0,-0.79 0.22,-1.45 0.65,-1.98 0.45,-0.56 1.07,-0.84 1.84,-0.84 0.76,0 1.33,0.28 1.72,0.84 0.31,0.45 0.47,1 0.47,1.66z"/>
   </g>
  </g>
 </g>
</svg>
